<svg xmlns="http://www.w3.org/2000/svg" width="25" height="24" viewBox="0 0 25 24">
    <g fill="none" transform="translate(.375)">
        <circle cx="12" cy="12" r="12" fill="#003349"/>
        <circle cx="12" cy="12" r="3.75" fill="#FFF"/>
    </g>
</svg>
