<svg xmlns="http://www.w3.org/2000/svg" width="23" height="21" viewBox="0 0 23 21">
  <path fill="#FFF" fill-rule="evenodd" d="M34.1862558,28.5334583 L24.9000481,12.4504296 C24.5604981,11.8622902 23.9329321,11.5 23.2538321,11.5 C22.574732,11.5 21.947166,11.8622863 21.607616,12.4504296 L12.2546625,28.6487113 C11.9151125,29.2368507 11.9151125,29.961431 12.2546625,30.5495704 C12.5942125,31.1377098 13.2217785,31.5 13.9008786,31.5 L32.6048453,31.5 L32.6109106,31.5 C33.6613813,31.5 34.5117838,30.6496116 34.5117838,29.5991408 C34.5132832,29.2065434 34.3920192,28.8381996 34.1858639,28.5334971 L34.1862558,28.5334583 Z M22.271737,17.3329647 L24.2408166,17.3329647 C24.3908861,17.3329647 24.512154,17.4542325 24.512154,17.604302 L23.9694948,25.0744022 C23.9694948,25.2244717 23.848227,25.3457395 23.6981575,25.3457395 L22.8159484,25.3457395 C22.6658789,25.3457395 22.5446111,25.2244717 22.5446111,25.0744022 L22.0019379,17.604302 C22.0004385,17.4557498 22.1217025,17.3329647 22.2717719,17.3329647 L22.271737,17.3329647 Z M23.2570529,28.9292766 C22.5264189,28.9292766 21.932187,28.3365969 21.932187,27.6059241 C21.932187,26.8737766 22.5248667,26.2825716 23.2570529,26.2825716 C23.9892392,26.2825716 24.5804054,26.8752513 24.5804054,27.6059241 C24.5804054,28.3365581 23.9892392,28.9292766 23.2570529,28.9292766 Z" transform="translate(-12 -11)"/>
</svg>
