<svg xmlns="http://www.w3.org/2000/svg" width="40" height="38" viewBox="0 0 40 38">
  <g fill="none" fill-rule="evenodd" transform="translate(0 -.25)">
    <path fill="#F68D2E" d="M25.6519216,1.42888469 C20.8165573,-0.0966513137 15.7303858,-0.87053433 10.8435739,1.55184456 C1.07066467,6.3979917 -2.81148901,18.0277723 2.17250177,27.5290272 C7.15649255,37.0302822 18.5349971,39.4769752 28.8916942,35.9597672 C39.9950968,32.1889979 42.5474717,19.4838394 37.5634809,9.98258449 C35.0711282,5.23160967 30.4872858,2.95442069 25.6519216,1.42888469 Z" transform="translate(0 .242)"/>
    <path fill="#003349" fill-rule="nonzero" d="M27.4285898,27.6545484 C28.1317157,27.6545484 28.7143056,27.0906543 28.7143056,26.4100924 C28.7143056,26.0795338 28.5736805,25.7586974 28.3426534,25.5350842 L24.8973368,22.200331 C25.7109538,21.0628204 26.142874,19.7016966 26.142874,18.3211282 C26.142874,14.5391486 22.9788077,11.47662 19.071437,11.47662 C15.1640663,11.47662 12,14.5391486 12,18.3211282 C12,22.1031079 15.1640663,25.1656364 19.071437,25.1656364 C20.497778,25.1656364 21.9040297,24.7475769 23.0792543,23.9600696 L26.5245709,27.2851005 C26.7555979,27.518436 27.0870716,27.6545484 27.4285898,27.6545484 Z M19.0714316,22.6767243 C16.5904073,22.6767243 14.5714316,20.7225394 14.5714316,18.3211282 C14.5714316,15.919717 16.5904073,13.9655321 19.0714316,13.9655321 C21.5524667,13.9655321 23.5714424,15.919717 23.5714424,18.3211282 C23.5714424,20.7225394 21.5524667,22.6767243 19.0714316,22.6767243 Z"/>
  </g>
</svg>
